IDS_CDS_ADS
…
IDS_CDS_ADS

Elin Larsen

10/05/2018

Paths to modify

For quick reproduction : skip this and go to the chunk load cdi-algo-data

*** ALGOS parameters***

Data processing

## # A tibble: 6,366 x 2
##    count Type 
##    <int> <chr>
##  1 24727 you  
##  2 11233 the  
##  3  7721 a    
##  4  7518 it   
##  5  6323 that 
##  6  6048 your 
##  7  5552 are  
##  8  5519 no   
##  9  5439 i    
## 10  5154 and  
## # ... with 6,356 more rows

## # A tibble: 6,589 x 2
##    count Type 
##    <int> <chr>
##  1 11003 the  
##  2 10552 you  
##  3  7233 a    
##  4  5038 and  
##  5  4456 it   
##  6  4217 i    
##  7  4179 to   
##  8  3969 that 
##  9  3663 are  
## 10  3527 m@l  
## # ... with 6,579 more rows

## # A tibble: 9,189 x 2
##    count Type 
##    <int> <chr>
##  1 12391 i    
##  2 10903 and  
##  3  8314 the  
##  4  8023 you  
##  5  6393 to   
##  6  6170 know 
##  7  6088 a    
##  8  5342 that 
##  9  4595 it   
## 10  4059 like 
## # ... with 9,179 more rows
…
Number of uni_lemma types

## [1] 371

merge cdi data and algo data by TYPE

## # A tibble: 332,182 x 9
##    count Type  count_gold unit  algos freq_smoothed corpus au    uni_lemma
##    <dbl> <chr>      <int> <chr> <chr>         <dbl> <chr>  <chr> <chr>    
##  1 24727 you        24727 ""    gold         0.0599 brent  gold  you      
##  2 11233 the        11233 ""    gold         0.0272 brent  gold  the      
##  3  7721 a           7721 ""    gold         0.0187 brent  gold  a        
##  4  7518 it          7518 ""    gold         0.0182 brent  gold  it       
##  5  6323 that        6323 ""    gold         0.0153 brent  gold  that     
##  6  6048 your        6048 ""    gold         0.0146 brent  gold  your     
##  7  5552 are         5552 ""    gold         0.0134 brent  gold  are      
##  8  5519 no          5519 ""    gold         0.0134 brent  gold  no       
##  9  5439 i           5439 ""    gold         0.0132 brent  gold  i        
## 10  5154 and         5154 ""    gold         0.0125 brent  gold  and      
## # ... with 332,172 more rows
…
